%YAML 1.1
%TAG !u! tag:unity3d.com,2011:
--- !u!114 &11400000
MonoBehaviour:
  m_ObjectHideFlags: 0
  m_CorrespondingSourceObject: {fileID: 0}
  m_PrefabInstance: {fileID: 0}
  m_PrefabAsset: {fileID: 0}
  m_GameObject: {fileID: 0}
  m_Enabled: 1
  m_EditorHideFlags: 0
  m_Script: {fileID: 11500000, guid: 8ae0ba0d1aa5917468502aaefbffdd8e, type: 3}
  m_Name: Enemy Fast Laser Pool
  m_EditorClassIdentifier: 
  Prefab: {fileID: 3534452202080789070, guid: 77aea48f40656d14ebf36f0fd49f9f85, type: 3}
  MaxSize: 50
  MoveController: {fileID: 11400000, guid: a1c0f847ca3ac5c4eb88c934786d5b74, type: 2}
  AutoAimController: {fileID: 11400000, guid: d528d8e7706b3b0459c42f1cbeb639c8, type: 2}
